%YAML 1.1
%TAG !u! tag:unity3d.com,2011:
--- !u!64 &984121090468664693
MeshCollider:
  m_ObjectHideFlags: 0
  m_CorrespondingSourceObject: {fileID: 0}
  m_PrefabInstance: {fileID: 0}
  m_PrefabAsset: {fileID: 0}
  m_GameObject: {fileID: 425469089053719858}
  m_Material: {fileID: 0}
  m_IsTrigger: 0
  m_Enabled: 1
  serializedVersion: 4
  m_Convex: 0
  m_CookingOptions: 30
  m_Mesh: {fileID: -2228417370725966487, guid: 5cf086c028f1084459d776adde070f4b, type: 3}
--- !u!1001 &8962394520844508758
PrefabInstance:
  m_ObjectHideFlags: 0
  serializedVersion: 2
  m_Modification:
    m_TransformParent: {fileID: 0}
    m_Modifications:
    - target: {fileID: -8679921383154817045, guid: 5cf086c028f1084459d776adde070f4b, type: 3}
      propertyPath: m_RootOrder
      value: 0
      objectReference: {fileID: 0}
    - target: {fileID: -8679921383154817045, guid: 5cf086c028f1084459d776adde070f4b, type: 3}
      propertyPath: m_LocalScale.x
      value: 0.04511204
      objectReference: {fileID: 0}
    - target: {fileID: -8679921383154817045, guid: 5cf086c028f1084459d776adde070f4b, type: 3}
      propertyPath: m_LocalScale.y
      value: 0.04511204
      objectReference: {fileID: 0}
    - target: {fileID: -8679921383154817045, guid: 5cf086c028f1084459d776adde070f4b, type: 3}
      propertyPath: m_LocalScale.z
      value: 0.04511204
      objectReference: {fileID: 0}
    - target: {fileID: -8679921383154817045, guid: 5cf086c028f1084459d776adde070f4b, type: 3}
      propertyPath: m_LocalPosition.x
      value: 0
      objectReference: {fileID: 0}
    - target: {fileID: -8679921383154817045, guid: 5cf086c028f1084459d776adde070f4b, type: 3}
      propertyPath: m_LocalPosition.y
      value: 0
      objectReference: {fileID: 0}
    - target: {fileID: -8679921383154817045, guid: 5cf086c028f1084459d776adde070f4b, type: 3}
      propertyPath: m_LocalPosition.z
      value: 0
      objectReference: {fileID: 0}
    - target: {fileID: -8679921383154817045, guid: 5cf086c028f1084459d776adde070f4b, type: 3}
      propertyPath: m_LocalRotation.w
      value: 1
      objectReference: {fileID: 0}
    - target: {fileID: -8679921383154817045, guid: 5cf086c028f1084459d776adde070f4b, type: 3}
      propertyPath: m_LocalRotation.x
      value: 0
      objectReference: {fileID: 0}
    - target: {fileID: -8679921383154817045, guid: 5cf086c028f1084459d776adde070f4b, type: 3}
      propertyPath: m_LocalRotation.y
      value: -0
      objectReference: {fileID: 0}
    - target: {fileID: -8679921383154817045, guid: 5cf086c028f1084459d776adde070f4b, type: 3}
      propertyPath: m_LocalRotation.z
      value: -0
      objectReference: {fileID: 0}
    - target: {fileID: -8679921383154817045, guid: 5cf086c028f1084459d776adde070f4b, type: 3}
      propertyPath: m_LocalEulerAnglesHint.x
      value: 0
      objectReference: {fileID: 0}
    - target: {fileID: -8679921383154817045, guid: 5cf086c028f1084459d776adde070f4b, type: 3}
      propertyPath: m_LocalEulerAnglesHint.y
      value: 0
      objectReference: {fileID: 0}
    - target: {fileID: -8679921383154817045, guid: 5cf086c028f1084459d776adde070f4b, type: 3}
      propertyPath: m_LocalEulerAnglesHint.z
      value: 0
      objectReference: {fileID: 0}
    - target: {fileID: -8143710011712545758, guid: 5cf086c028f1084459d776adde070f4b, type: 3}
      propertyPath: m_Materials.Array.data[0]
      value: 
      objectReference: {fileID: 2100000, guid: c1b98b502f293324699731cc6172e234, type: 2}
    - target: {fileID: -7664728788398519507, guid: 5cf086c028f1084459d776adde070f4b, type: 3}
      propertyPath: m_Materials.Array.data[0]
      value: 
      objectReference: {fileID: 2100000, guid: c1b98b502f293324699731cc6172e234, type: 2}
    - target: {fileID: -5363424281805771908, guid: 5cf086c028f1084459d776adde070f4b, type: 3}
      propertyPath: m_Materials.Array.data[0]
      value: 
      objectReference: {fileID: 2100000, guid: c1b98b502f293324699731cc6172e234, type: 2}
    - target: {fileID: -4791300549530949414, guid: 5cf086c028f1084459d776adde070f4b, type: 3}
      propertyPath: m_Materials.Array.data[0]
      value: 
      objectReference: {fileID: 2100000, guid: c1b98b502f293324699731cc6172e234, type: 2}
    - target: {fileID: -3195828791156449804, guid: 5cf086c028f1084459d776adde070f4b, type: 3}
      propertyPath: m_Materials.Array.data[0]
      value: 
      objectReference: {fileID: 2100000, guid: c1b98b502f293324699731cc6172e234, type: 2}
    - target: {fileID: 327064008815436722, guid: 5cf086c028f1084459d776adde070f4b, type: 3}
      propertyPath: m_Materials.Array.data[0]
      value: 
      objectReference: {fileID: 2100000, guid: c1b98b502f293324699731cc6172e234, type: 2}
    - target: {fileID: 919132149155446097, guid: 5cf086c028f1084459d776adde070f4b, type: 3}
      propertyPath: m_Name
      value: Pohon3 Variant
      objectReference: {fileID: 0}
    - target: {fileID: 1442450553484104045, guid: 5cf086c028f1084459d776adde070f4b, type: 3}
      propertyPath: m_Materials.Array.data[0]
      value: 
      objectReference: {fileID: 2100000, guid: c1b98b502f293324699731cc6172e234, type: 2}
    - target: {fileID: 2355982399387309400, guid: 5cf086c028f1084459d776adde070f4b, type: 3}
      propertyPath: m_Materials.Array.data[0]
      value: 
      objectReference: {fileID: 2100000, guid: c1b98b502f293324699731cc6172e234, type: 2}
    - target: {fileID: 4321514657177891973, guid: 5cf086c028f1084459d776adde070f4b, type: 3}
      propertyPath: m_Materials.Array.data[0]
      value: 
      objectReference: {fileID: 2100000, guid: c1b98b502f293324699731cc6172e234, type: 2}
    - target: {fileID: 6745302439343835087, guid: 5cf086c028f1084459d776adde070f4b, type: 3}
      propertyPath: m_Materials.Array.data[0]
      value: 
      objectReference: {fileID: 2100000, guid: c1b98b502f293324699731cc6172e234, type: 2}
    - target: {fileID: 8567717000986892130, guid: 5cf086c028f1084459d776adde070f4b, type: 3}
      propertyPath: m_Materials.Array.data[0]
      value: 
      objectReference: {fileID: 2100000, guid: c1b98b502f293324699731cc6172e234, type: 2}
    m_RemovedComponents: []
  m_SourcePrefab: {fileID: 100100000, guid: 5cf086c028f1084459d776adde070f4b, type: 3}
--- !u!1 &425469089053719858 stripped
GameObject:
  m_CorrespondingSourceObject: {fileID: -466329591000292508, guid: 5cf086c028f1084459d776adde070f4b, type: 3}
  m_PrefabInstance: {fileID: 8962394520844508758}
  m_PrefabAsset: {fileID: 0}
